[
	{
		"_comment": "****REQUIRE USER FIXTURES",
		"model":"user",
		"items":[
			{	
				"id": 20000,
				"name": "DeyobTestBrand",
				"username": "DeyobTestBrand",
				"location": "Marostica",
				"link": "http://deyob.com",
				"phone": "0444323322",
				"role": "brand"
			}
		]
	},
	{
		"_comment": "****REQUIRE INIT FIXTURES",
		"model": "campaign",
		"items":[
			{
				"id":20000,
				"type": 1,
				"typeName": "lotteria",
				"brand": 20000,
				"name":"Campagna Test",
				"description": "Deyob organizza una lotteria a premi con vincita istantanea ad estrazione finale denominata 'Deyob Spring', con 2.000 (duemila/00) tagliandi, sensibilizzando gli stessi cittadini a contribuire economicamente, tramite l’acquisto dei relativi biglietti.",
				"image": "campaignTest.png"
			}
		]

	}
]